-0.056813155576533984
-0.05809246915340782
-0.026049811441003396
0.009672617329066619
-0.08052800055799088
0.006136567731641587
0.04402430542152539
-0.10195408966525171
0.031241728555013955
-0.0180084915738368
0.13219607736283887
-0.11479378097705331
-0.13547697093579203
-0.023530467331301704
0.20565780739464784
-0.010439185044718483
-0.013857143446701761
0.10093149789728968
0.21041155501603692
0.1023266899250094
-0.10017260710391039
0.22132411246672917
-0.19759072043681414
0.06951526662379737
-0.07844718072203077
-0.12999014905569792
0.14998567305030874
-0.12773380173323995
0.0546828042217927
-0.15421325316192347
-0.1109349431493584
-0.09361598946415634
-0.1250723517427756
-0.013637005779023305
0.12427034837365084
-0.06073774528859893
0.12082536147843143
-0.16224018460229442
-0.008915182292047017
-0.02958793953283699
0.0012293433816283309
-0.002282343536259956
0.017797158934923483
-0.006181718230652938
0.13670319982605453
-0.08087535589461955
-0.09461996513840673
-0.003321062730074328
0.11355446080004167
0.017268886678937605
0.009556676412502395
-0.019641382961787048
0.11960360231743282
0.13872138843487603
-0.09136584223024112
-0.03572709999801481
0.13455875627157154
-0.0993907813467841
0.08643586792206354
-0.019870066260735016
0.17261496259628034
-0.08758185756823529
0.03744019178287255
0.04461455141250652
-0.024165784760336477
-0.09699978834097861
-0.003010596943243352
0.06961684599650815
0.015991075202810717
0.039552069978528615
-0.0017606121890900881
0.03423857155868717
-0.09647996836807576
0.048868878179799374
-0.0006274243920403621
-0.008860680148188412
0.1517414787567866
0.17999371909332731
-0.03652489517923631
0.07113116825953453
-0.1310948878751707
-0.0024427035342422174
0.04844012448579144
-0.09302508930489607
0.0068426705291036605
0.0045681477099156235
0.017925758954904666
0.10537836599586213
-0.035428626077904805
-0.17400918179760025
0.03935131332859451
0.0816530919113268
0.1329090774086076
-0.10637872701426508
-0.04477964239544028
-0.15075986183501924
-0.14550920127063552
0.139511639689343
-0.09844588806875938
0.009815128032040439
0.023355184549098254
0.12748459357463013
0.24527917037826039
-0.007180685512795325
0.09456183952834346
-0.03937057196040897
0.042265093076981244
0.07453475391430697
0.05995251487798453
0.01620960483459925
-0.03043438337670026
-0.016474517790556597
0.2863038951815023
0.000805115010433586
-0.022883893684620335
-0.14125523292998193
0.1092824292676083
-0.0006312827002243113
-0.304675100268575
0.16824489779398813
0.10042283833335547
0.13533877146844628
0.030299653313436342
0.21215294711145982
0.20120662345554946
-0.0585634043427514
0.1072930238500458
-0.03661547251817742
0.13196960385857706
0.07692089399074267
-0.143379966462429
0.15752754979056435
0.008642058908121447
-0.039431186056653515
0.14300181566828787
-0.12058927111456333
0.024919971040379806
0.07422193274042611
-0.015233353665642407
0.12961529729812651
-0.03983736755642675
0.12737208761144783
0.11975552505059146
-0.15552706385055856
-0.10296367475340112
-0.06234081742821706
0.1512066441889078
-0.10764873582163169
-0.04030530202495754
0.20767760667662605
-0.011016317015664712
0.06558460918842793
-0.12322478012000554
-0.2261814588375618
-0.01593077720053388
-0.012425038699812523
0.16205950442313874
-0.03286616594932987
-0.031566697381481136
0.1604273287162619
0.08512433601978298
-0.1123452305105238
0.07438736873043217
-0.030992834376332403
0.04164656009960513
0.03772035864116047
0.08039357043486325
-0.09535054463460868
0.07496287766391722
0.03902670649837354
-0.06875284269148317
0.058972303273983874
-0.12186529387004158
0.0008071666954782416
0.1497388650772627
0.04547483886721547
0.15854593233499578
0.028305404499006006
0.08326799883754171
0.005155966873991807
-0.010570032073513749
0.030522400382647242
-0.01950027259558633
-0.0796101566161192
0.007918996150052005
0.07188076802870778
0.0234642253004678
0.09177289510798659
0.15351078239849514
0.17461157383939707
0.08432108899112543
-0.10090370037039482
-0.02966635041840206
-0.09117378977159557
0.1818768152851881
-0.05040997935222257
0.004391231190633199
0.18323496673600714
-0.03347151654935438
0.029494079782849316
0.02556888934896009
0.003472555274132214
0.056785058885196464
0.02279125020525189
-0.04743119855113345
0.03509932807546495
-0.06265081765479996
0.0619533636839103
-0.1724230534279769
0.06443826278121985
-0.04985133589447854
-0.20994049383034025
-0.17688888207961953
0.057521911816914864
0.10153351102897595
-0.014837229711839562
0.03308635309947233
-0.0839444982557265
-0.14696654982114218
-0.006240291465387893
-0.14771009997010767
-0.0062733192428172276
0.03752598851924124
0.10112487318170704
-0.14147606529516232
0.006853951245411842
-0.010381031179003646
-0.12381341325997741
0.01807229893573906
0.009149953656213891
0.027855799862456027
-0.08873863901357491
-0.14632956316499157
-0.20599067819392414
0.16366183732496592
-0.08105597304665924
0.06540499876786464
0.02412887323002412
0.047105762695729
-0.0029850636522981036
0.09209662215927164
-0.012689940797725039
0.01781307364078914
0.17263167722077988
-0.07406084415782707
-0.2881159882453082
-0.14625312108958988
0.057739907000586156
0.030377881615672772
-0.018538022650700266
0.026730447050879944
-0.08951010879002926
-0.04908365032612576
-0.07103127946236941
0.19680199977218626
-0.032762083266314766
-0.00397685211779703
-0.16621639310449018
0.0005746718170662407
-0.002169410312948375
0.20117633065073537
-0.10312172670023408
0.011823239735535182
-0.23985235968791185
0.07292517465199083
0.07127484187881275
0.09278150148902403
-0.15886061982205107
-0.12973297018035798
-0.151090842104993
0.01567790887201034
0.10198062305125132
-0.03011191643842877
-0.07957759534877429
-0.10376201775262495
-0.08708106800801667
0.14197347772188154
-0.058244809349703164
-0.11634100547139048
0.042300053329703886
0.05907378653143938
-0.00029598602710208407
0.019870526503720398
0.14481636720999244
0.08269843662005483
0.25140055131765515
0.011720393529567164
-0.002353145381436688
0.022150192537167455
0.006380984134338254
0.010493026864400592
0.06468338462489812
0.05988903030006968
0.0584081894706522
-0.0662013155874811
0.0791250840816764
0.14212224769528914
-0.022098474086037316
-0.007170629698348977
0.08588937421815843
0.0024069162571021554
0.1103424072667964
-0.19182548298048852
0.0050979604595815
0.043043507445445384
0.022898672562470537
-0.035007739775531364
-0.09132395949648442
-0.005202333152939243
-0.16930875776803594
0.27993474347133696
-0.0529195492526159
0.09588610379108309
-0.0951440608764744
0.058272211396776796
-0.1550517139968492
-0.08580269326109563
0.02286386654194394
0.13866271906446004
-0.0715962569286416
-0.06071108437892982
0.06411706052358843
0.03764503224589818
0.20992800409463316
-0.09187129509214297
-0.06220730170267962
-0.022417227009547194
-0.05922050302031724
0.19922411681259594
0.03303422388458442
0.02053837355842876
0.21005827004754818
0.1480394400300241
0.03354036047099567
0.20057478895064743
-0.0459262064191288
0.11808000144832115
0.06102976475793853
0.04785989518416803
0.02848308691484519
0.09734025099466591
0.09213403804294643
0.06110858815015838
-0.09206959856275476
-0.05057680184934026
0.18315241221116219
0.06742755982289592
0.14830658685427256
-0.11987129759143798
-0.10171411838671018
0.053816087696378634
-0.1497827175498454
0.09980449593565481
-0.16368476471764837
0.03639924132365321
-0.05351150716458519
0.10821880943432567
-0.125113866613189
0.06131656812506157
0.04469983696871165
-0.16509595006867633
0.08901666302473792
-0.11124118995405613
-0.052459499671807144
0.00028623523710970803
-0.15216693407926427
0.0599246184560093
0.041421143534625435
0.01154877739563005
-0.12236582824354246
0.015131421010067345
0.037454060502659106
0.010589429192373573
0.06770932138565258
0.17569299619223916
-0.052193369956479566
0.017457167655127045
-0.14107365145087078
-0.10898771139688111
-0.2328557274299167
0.22088455887405511
-0.08105184973739316
-0.04299736129802792
-0.07719381602944055
0.014186435149451383
-0.10215998582753356
0.0003556801449160452
0.07670946865958418
-0.10791700578695845
-0.1292450334030719
-0.15088351172631143
0.23137567337843545
0.06484852143074381
0.11708809512601207
0.06037303922339379
0.04052291553152612
-0.0020826684050928843
-0.08739553187077857
-0.11664385085921901
0.009780892182029446
0.11246410133256309
0.1343168373871278
-0.05655551781688167
0.04565164698136834
-0.15202296270190654
0.03900774733840844
0.213719707818367
0.06804984648740131
-0.15860597298202483
-0.014642217839467626
-0.011563140623937157
-0.1553035240749097
-0.013063266286164355
0.13935584633525674
0.013540894387553029
0.06804205880077983
0.2115331852662936
0.12112684858973354
0.08344743940006824
-0.29541187723222445
0.017193183935707134
-0.03680851483248464
0.013995024234224074
0.02181041759485822
-0.0762647349568554
-0.11140014941125553
-0.10023048993832658
0.15307668705015892
-0.04643095089905388
-0.018698857388510782
0.14239917120723974
-0.02862591510425271
0.05262645146711012
0.17538195962076
0.05130904389879131
0.022504609071545195
0.13378275289213168
-0.01491202168215994
-0.054528395471505745
-0.04521064024578034
-0.19789968067343885
0.08077145903988316
-0.0950053482378927
0.015229854645368655
-0.12825051389204742
-0.17638698392641444
0.0925563943030933
-0.0049408167972896724
-0.04513738123375108
-0.013871246317724904
0.15538451372462103
0.011565267360540744
-0.035610621614305275
0.028892199354769024
0.017811394316682137
-0.16276462099571487
0.06922988413169531
0.11597640415637694
0.03881669904901559
-0.05169515044172371
-0.06673487334082094
0.03100297400902583
0.04129772792368766
-0.044146712297614916
0.14624074586599942
0.02766656129109348
0.11057212593784614
0.0019276278033855906
-0.07177458196148218
0.030365979773040026
-0.13092188186825227
-0.03697319236654645
-0.008490927948717709
-0.1382596965597418
-0.050468581080617796
-0.09780260076882052
-0.02053770773371812
-0.0922641102736317
0.06136749585954687
-0.038532161820632314
-0.0012920644301042561
0.02070721180094802
0.062060629674868
-0.013922840730937075
-0.05301755926350295
0.19845915989399238
0.19371496194001322
-0.1702163825345037
-0.08185278274145913
0.006412225875408401
0.17943056538116092
-0.09808621224811319
-0.012557237596821294
0.03511126797468927
0.004111123014481141
0.009894515121009381
0.1756370590602072
-0.009632697976184811
-0.06848540969107919
0.021494573509438907
0.11200522642028306
-0.12868260351790106
0.06551394720958596
0.1836843396766121
0.08310191341057534
0.0989248848532311
0.014206993747158773
0.062415070514616956
0.002667818796285192
-0.046421376551860356
0.04829555431481658
-0.04918343807619795
-0.14937768250295802
-0.12425541963077101
-0.12009492263662834
-0.07017959337703507
0.13752796795686473
-0.03753236784608924
-0.05043966458153624
0.15688844329734997
0.0195310317711167
-0.04757313550545378
-0.033676979612221436
0.04037893377674259
0.030751723515499325
0.034669415945801176
-0.030159516630943062
-0.031448204187726994
-0.1845740313637999
0.020367501234747162
-0.10441004551039662
0.01881970089097597
0.10612832180425823
-0.11533279710105644
0.13797379888477146
-0.22745179484913913
-0.1464061372337203
-0.038441869254713344
-0.0765532690222257
0.007734480542567878
0.08318059018999009
0.08612566816503411
0.04293640789279593
-0.013484647910259554
0.24626289710087168
0.031270469644088396
-0.02758938744189873
0.11511706385459648
-0.009044340863046077
0.05056775937562461
0.007414721608278406
0.09600597052015979
-0.04416866431967064
-0.05277663289583907
-0.018841612302128576
-0.16060878940635415
-0.004832095010220881
-0.020962961669023377
-0.1324885209175354
-0.023444573330114054
-0.04339592882478612
0.04662249312879643
-0.06798822477462092
0.027437019377678163
0.15800507186164003
0.007966889641327989
-0.1456070169983583
-0.0827623477027124
0.13668587265466742
0.04682599560096462
-0.03725896066645072
0.1021966329389381
0.002441070803793699
-0.031759171429800975
-0.0249422513980663
0.008189889561378996
0.014559841826648165
-0.07839045791425962
-0.009937092708700277
0.14840388835953952
0.018999175100399158
0.030977184907663092
0.02555873712556351
0.05484651875745686
0.03966080572168217
-0.17291492771255473
-0.011256275334941016
-0.031105869750945876
-0.11077135182206005
-0.13995448020353637
-0.07663391857379896
0.1265235198276169
-0.0003456853853198922
0.04607667843509654
0.025437303912798304
-0.034452958218733204
0.045867579056018216
-0.057443286055860576
0.05923215596242646
-0.03166505398136369
0.07396479690784462
0.03034955224226298
-0.17951620145118108
-0.0831399002142743
-0.021747071979441993
0.12315080505750885
0.0764795665771042
0.1703786113607266
-0.182566221660638
-0.1157091205706823
0.02210970711245015
-0.03262291233024492
-0.010491884152746756
-0.01469131114601968
-0.26463949411903126
-0.09663148258975572
0.11458774960656437
0.12354198777613568
0.2553766727005425
0.025584647585541694
0.10093837196200608
-0.035874639117041966
-0.20361298323131966
0.0058770960477092645
-0.047252305058999036
-0.02395164035302344
-0.014795005056139635
-0.08778096728802243
0.06236380054677886
-0.16486689364693838
0.00492373822009058
-0.1664328240293158
-0.06553203100944234
0.12118730998294536
-0.18638924523755784
0.029203511878105257
0.11413914619047992
-0.041703168228468174
-0.14473881680019343
0.0020103952576771057
-0.10889433832429618
0.17568624224581428
0.021014689514355027
0.1800483878412713
-0.0335652494329518
-0.14168494711280707
-0.015216153509305564
-0.05112385282045532
0.09681957218366151
0.004937278263015464
-0.04840955397156543
0.007989933439088591
-0.10942573247163008
-0.10908338103596836
0.023600175668365184
0.030512090858562435
0.1577799509223937
0.07433970249964982
0.14474898678393586
0.047096339520188615
0.07332032197640434
-0.07116157157912972
-0.038333941227545354
-0.1249263459218746
0.0388039947135078
0.00024027112006312618
-0.044935143235114196
-0.14054236307777435
-0.04170000181120625
-0.12844718099187266
0.12652979415537188
-0.020999374567696148
-0.06405021162020257
-0.09120344226565144
-0.17750714068306636
0.16637233507125304
-0.18379802391300998
0.07387022928930943
-0.1727034090743859
-0.014506496232148806
0.002852990186524151
0.08634804327188873
-0.08157957854768677
0.010693125510330208
-0.020692126410213625
0.1884827478130749
-0.008639477002631886
-0.02240355677040435
0.028694318903854932
-0.030679251682593747
-0.05580936882718244
-0.04439519397306494
-0.029333367754289543
-0.06512868638171287
0.11581900947109419
-0.034961844068776546
-0.07463364110558644
-0.2755030589116792
-0.032852601395502466
-0.081177945317631
-0.06895369182063942
0.173647983438563
-0.06076984698826422
-0.028728172787596665
-0.06295608563928745
-0.13631467920718435
-0.023511925129667877
-0.01682417491433066
0.019762633980666317
0.001948242564970905
0.14955964893201135
-0.009081376087919894
0.13366644880420273
-0.07788189215337282
0.00703351995968585
-0.02428164615583787
0.030743559392317057
-0.08957663787743148
-0.0185557747338882
-0.11113222441171243
-0.016397034530945664
0.13397712567936013
0.03380788508791819
-0.1080533251401906
0.09014682995469823
-0.06524662167471332
0.12329342870058356
0.08124049625935295
0.02607850066474677
0.140619506445322
-0.0014044345316561178
0.05853804832671042
-0.15832918836032583
-0.13312216828281487
0.06935028149193348
-0.10703359349351503
0.10158780618131254
0.14600508908567597
0.014547418304479058
-0.043601148407608536
0.02704554527737084
0.04801003911351039
0.020762372351730656
0.11901336421773819
-0.048946407959707804
0.0646922217060394
-0.017566044500063997
0.10800086212546084
0.0718524902607875
-0.04591478688811917
0.017638632903436757
-0.01227797791837325
-0.11230703371029833
0.024521258524492565
0.09762854514820318
0.05386006349880112
0.12115424968621016
0.08332358390301105
0.06703994317289286
-0.06692062362594882
0.013341813393716737
-0.014353502698640885
-0.052418071913797715
0.058136470977600475
0.12782307713089344
0.20428759540355135
-0.23596579166024828
0.007082635818842293
-0.19483352986178942
-0.01063093330323904
-0.1272235148442329
-0.09411742696661313
-0.10568844358583152
-0.06142166079904046
-0.033100566340841124
-0.08672427699677776
-0.0067687626846484735
-0.07645060686915993
-0.023200008172650607
-0.08570454475499042
-0.20346816117519056
-0.05008698961306449
-0.02238440353360644
0.0926765563670872
0.011658885558524904
-0.09041518104930495
0.08952160984193262
0.12223343138515873
-0.22242058399975836
-0.04658289782809923
-0.0564721997170484
0.02594860847384897
0.04602194262832887
-0.021373783832141887
-0.07063492368249862
0.057794825849130815
-0.006695520777653646
0.024987684531744523
-0.026891759977675636
-0.1067897910215857
-0.009077001351107448
0.031849217631245
0.12335423199248181
0.21863215526916316
-0.028431158854067398
0.07514094614323996
0.08897364806970849
-0.007506861255786562
0.15488369385488968
0.022895196456278303
0.025938888663349636
-0.06392360259108337
0.06494610445358788
-0.03645513697191268
0.07280619104895912
0.05074531173831223
-0.10035618163163317
-0.016064357169532563
0.009569458333777155
0.019904176241608222
0.02420380480901595
-0.05380537832808018
0.19701667937630848
-0.1325826218020327
-0.12590363952374592
0.1136630723588026
0.13128509176410752
-0.07756909730163461
0.09831839653117405
0.029933718372292806
-0.02804509857347841
-0.034004170740112756
0.14049852413381989
0.1797574233159065
-0.003319284189073568
-0.21572196306317762
-0.01864689619215875
-0.02869144552375255
0.07551270974029153
-0.014696157851338102
0.0064225883375655
-0.058305727645128425
0.024139348103952837
0.019333303754697318
-0.09303813489434191
0.0548464585950518
-0.09771835511625493
-0.04335360500582814
-0.1532004151241
-0.11860819036230344
0.002471696585775042
0.06262489434244
-0.060110825491232305
-0.09985693867827539
0.0441417654504388
-0.0351175670668376
0.17780697804344026
0.08124914275698837
0.035207814833974414
0.04845225826941704
-0.09318551026434924
0.20870855731258942
-0.010371153898143205
0.05115735355692903
0.0020165226613382257
0.011695448036619656
0.14261787955759786
-0.1773207873506048
-0.09140921499422988
-0.009470712240990236
0.09370998230510436
-0.0015341945990440264
0.06439576532268458
-0.007979513793932438
0.14448540018868747
-0.08508955562525383
0.21092842373546197
-0.03324514982869801
-0.008018514639497131
0.212993122853135
0.11408230329378342
0.05013948127853443
-0.034680426582448506
0.04444639151656234
0.1995470113594706
0.021102989433633836
0.13090334977881
-0.01352289234864314
0.15951879966388696
-0.010862144494372642
0.16184862846106154
-0.11321121585014898
0.04346286095197421
0.12425073910317529
0.03665358997966411
-0.08236338726620816
0.08459747586275146
-0.05835658621164763
0.11191105889011353
0.17247124673171277
-0.11752630668981022
-0.026757770267122796
0.06810346179301148
-0.033058911953224905
-0.10115314119361432
0.1313361699528666
0.050958551544904064
-0.20198208126590556
0.10109787785127511
-0.09765331853916712
-0.06034938751627782
-0.07688916651726235
0.029451728626114733
0.022616228073490712
-0.048090735672083135
-0.022894268143262383
0.04394817701230236
-0.0023905849707032897
0.049792108160073456
-0.029376564030503257
0.015943149520403765
-0.21387975752752167
-0.00853248404255428
0.062105727740071975
-0.11192134777430646
-0.020767607281929668
0.03138093273815026
0.08160812146934691
0.05002798825562604
0.04376960620631538
-0.026044865018528825
-0.008575935455536964
0.05328384467704005
0.009210959944744242
0.0840212995984672
-0.018313779629794785
0.1893880623433998
0.07840192195684388
-0.057117469740217974
-0.18017052765046737
-0.17114510213834974
-0.07503643009611595
0.12231709272615708
-0.005312574904633508
-0.014070942467497061
-0.12498886581878049
0.00580597514783882
0.034330232203232836
-0.05595499562425102
0.12396785041283163
0.07282404994283544
-0.15255790029623323
0.008242646109574599
0.013312417726715799
0.08388190404070543
0.17385681036972855
-0.1281873488644484
0.12413633562223869
-0.04214326123426471
-0.13385450659614395
0.08189741323966043
0.07734263152866089
0.011304389389363761
-0.06137939919040626
0.03989150147299492
0.045828848168550554
-0.15661707490574833
0.0368465563275099
0.12346145150455715
-0.03825812450176689
0.07361243685693718
0.048694274362552165
0.07529741345454825
0.0050934968906151306
0.05833365930984499
-0.16901644896976986
-0.13753019764150445
0.02482972333629095
-0.11493536031611983
0.03223593760597942
0.03588135175928459
-0.10163428138646885
-0.1272744846995638
-0.05565971229204391
0.09877146618947472
-0.13072081164601254
-0.04731925488178973
0.028541958251802516
0.08412719729256081
0.009303430783525425
0.16221523660081225
0.1818080122404258
-0.01355814524613963
0.07825617598885728
0.13934362486223856
-0.048456718158858166
-0.21027660207528573
0.08168928739066939
-0.022169447982242216
0.30872389956405377
